measurements/center-right.csv

CH1,CH2,CH3,Start,Increment,
Volt,Volt,Volt,-3.00000e+00,5.00000e-03
-6.39200e-01,-1.24800e-01,7.35600e-01,
-6.42400e-01,-1.21600e-01,7.41600e-01,
-6.42400e-01,-1.24800e-01,7.41200e-01,
-6.39200e-01,-1.21600e-01,7.35200e-01,
-6.42400e-01,-1.21600e-01,7.41600e-01,
-6.39200e-01,-1.24800e-01,7.35600e-01,
-6.42400e-01,-1.24800e-01,7.41600e-01,
-6.39200e-01,-1.21600e-01,7.34800e-01,
-6.42400e-01,-1.21600e-01,7.41600e-01,
-6.39200e-01,-1.24800e-01,7.34800e-01,
-6.38800e-01,-1.21600e-01,7.34800e-01,
-6.42400e-01,-1.24800e-01,7.41600e-01,
-6.39200e-01,-1.21600e-01,7.35200e-01,
-6.42400e-01,-1.24800e-01,7.41600e-01,
-6.39200e-01,-1.21600e-01,7.41600e-01,
-6.42400e-01,-1.24800e-01,7.34800e-01,
-6.42400e-01,-1.21600e-01,7.41200e-01,
-6.38400e-01,-1.24800e-01,7.34800e-01,
-6.42400e-01,-1.24800e-01,7.34800e-01,
-6.38400e-01,-1.21600e-01,7.41200e-01,
-6.42400e-01,-1.24800e-01,7.34800e-01,
-6.38800e-01,-1.21600e-01,7.41600e-01,
-6.38400e-01,-1.24800e-01,7.34800e-01,
-6.42400e-01,-1.21600e-01,7.41600e-01,
-6.41600e-01,-1.21600e-01,7.41200e-01,
-6.38800e-01,-1.24800e-01,7.34800e-01,
-6.39200e-01,-1.24800e-01,7.41200e-01,
-6.42400e-01,-1.21600e-01,7.34800e-01,
-6.38400e-01,-1.24800e-01,7.41200e-01,
-6.42400e-01,-1.21600e-01,7.34800e-01,
-6.38400e-01,-1.24800e-01,7.34800e-01,
-6.42000e-01,-1.21600e-01,7.41600e-01,
-6.38800e-01,-1.21600e-01,7.41200e-01,
-6.42000e-01,-1.24800e-01,7.34800e-01,
-6.41600e-01,-1.24400e-01,7.34800e-01,
-6.38400e-01,-1.21600e-01,7.41600e-01,
-6.42000e-01,-1.24800e-01,7.34800e-01,
-6.38800e-01,-1.21600e-01,7.41600e-01,
-6.41600e-01,-1.21600e-01,7.34800e-01,
-6.38400e-01,-1.24800e-01,7.41200e-01,
-6.42000e-01,-1.21600e-01,7.41200e-01,
-6.38400e-01,-1.24800e-01,7.34800e-01,
-6.42000e-01,-1.24800e-01,7.34800e-01,
-6.38400e-01,-1.21600e-01,7.41200e-01,
-6.42000e-01,-1.24800e-01,7.41200e-01,
-6.38800e-01,-1.20800e-01,7.34800e-01,
-6.42400e-01,-1.21600e-01,7.41200e-01,
-6.38400e-01,-1.24800e-01,7.34800e-01,
-6.42400e-01,-1.24800e-01,7.34800e-01,
-6.38400e-01,-1.21600e-01,7.41600e-01,
-6.38400e-01,-1.21600e-01,7.41200e-01,
-6.42400e-01,-1.24800e-01,7.34800e-01,
-6.41600e-01,-1.24000e-01,7.41200e-01,
-6.38400e-01,-1.21600e-01,7.34800e-01,
-6.38400e-01,-1.21600e-01,7.34800e-01,
-6.42400e-01,-1.24800e-01,7.41200e-01,
-6.38400e-01,-1.24800e-01,7.41200e-01,
-6.42400e-01,-1.21600e-01,7.34800e-01,
-6.42400e-01,-1.24800e-01,7.41600e-01,
-6.38800e-01,-1.21600e-01,7.34800e-01,
-6.42400e-01,-1.24800e-01,7.34800e-01,
-6.38800e-01,-1.21600e-01,7.41600e-01,
-6.42000e-01,-1.24800e-01,7.41200e-01,
-6.38400e-01,-1.21600e-01,7.34800e-01,
-6.38400e-01,-1.21600e-01,7.34800e-01,
-6.42000e-01,-1.24800e-01,7.41200e-01,
-6.38400e-01,-1.24800e-01,7.34800e-01,
-6.42400e-01,-1.21600e-01,7.41600e-01,
-6.42000e-01,-1.21600e-01,7.41200e-01,
-6.38400e-01,-1.24800e-01,7.34800e-01,
-6.42000e-01,-1.21600e-01,7.34800e-01,
-6.38400e-01,-1.24800e-01,7.41200e-01,
-6.42400e-01,-1.21600e-01,7.34800e-01,
-6.38800e-01,-1.24800e-01,7.41200e-01,
-6.42400e-01,-1.21600e-01,7.34800e-01,
-6.38400e-01,-1.24800e-01,7.41200e-01,
-6.38400e-01,-1.24800e-01,7.34800e-01,
-6.42000e-01,-1.21600e-01,7.41200e-01,
-6.38400e-01,-1.21600e-01,7.34800e-01,
-6.42000e-01,-1.24800e-01,7.41200e-01,
-6.42400e-01,-1.21600e-01,7.41200e-01,
-6.38400e-01,-1.24800e-01,7.34800e-01,
-6.42000e-01,-1.21600e-01,7.41200e-01,
-6.38800e-01,-1.24800e-01,7.34800e-01,
-6.42400e-01,-1.24800e-01,7.34800e-01,
-6.38400e-01,-1.21600e-01,7.41200e-01,
-6.42400e-01,-1.21600e-01,7.34800e-01,
-6.38400e-01,-1.24800e-01,7.41200e-01,
-6.41600e-01,-1.24800e-01,7.41200e-01,
-6.38400e-01,-1.20800e-01,7.34400e-01,
-6.38400e-01,-1.21600e-01,7.34400e-01,
-6.42000e-01,-1.24800e-01,7.41200e-01,
-6.41600e-01,-1.21600e-01,7.41200e-01,
-6.38400e-01,-1.24800e-01,7.34400e-01,
-6.41600e-01,-1.21600e-01,7.41200e-01,
-6.38400e-01,-1.24800e-01,7.34800e-01,
-6.38400e-01,-1.21600e-01,7.34800e-01,
-6.42000e-01,-1.24800e-01,7.41200e-01,
-6.38400e-01,-1.24400e-01,7.34800e-01,
-6.42400e-01,-1.21200e-01,7.41200e-01,
-6.42400e-01,-1.24800e-01,7.34800e-01,
-6.38800e-01,-1.21600e-01,7.41200e-01,
-6.38400e-01,-1.21600e-01,7.34800e-01,
-6.41600e-01,-1.24800e-01,7.41200e-01,
-6.42000e-01,-1.21600e-01,7.34800e-01,
-6.38400e-01,-1.24800e-01,7.41200e-01,
-6.38400e-01,-1.21600e-01,7.34800e-01,
-6.42000e-01,-1.24800e-01,7.41200e-01,
-6.38400e-01,-1.21600e-01,7.41200e-01,
-6.42400e-01,-1.24800e-01,7.34800e-01,
-6.38400e-01,-1.24800e-01,7.34800e-01,
-6.42000e-01,-1.21600e-01,7.41200e-01,
-6.42000e-01,-1.24800e-01,7.34800e-01,
-6.38400e-01,-1.20800e-01,7.41200e-01,
-6.42400e-01,-1.21600e-01,7.41200e-01,
-6.38400e-01,-1.24800e-01,7.34800e-01,
-6.42400e-01,-1.21600e-01,7.41200e-01,
-6.38800e-01,-1.24800e-01,7.34400e-01,
-6.38400e-01,-1.24400e-01,7.41200e-01,
-6.41600e-01,-1.21600e-01,7.34400e-01,
-6.38400e-01,-1.21600e-01,7.41200e-01,
-6.42000e-01,-1.24800e-01,7.34800e-01,
-6.42000e-01,-1.21600e-01,7.34800e-01,
-6.38400e-01,-1.24400e-01,7.41200e-01,
-6.42400e-01,-1.21600e-01,7.41200e-01,
-6.38400e-01,-1.24800e-01,7.34800e-01,
-6.42000e-01,-1.21200e-01,7.41600e-01,
-6.38400e-01,-1.24400e-01,7.34800e-01,
-6.42000e-01,-1.24800e-01,7.34800e-01,
-6.38400e-01,-1.21200e-01,7.41200e-01,
-6.42000e-01,-1.21600e-01,7.34800e-01,
-6.38400e-01,-1.24400e-01,7.41200e-01,
-6.38800e-01,-1.21600e-01,7.41200e-01,
-6.42400e-01,-1.24400e-01,7.34800e-01,
-6.42400e-01,-1.24800e-01,7.41200e-01,
-6.38800e-01,-1.21600e-01,7.34800e-01,
-6.39200e-01,-1.21600e-01,7.34800e-01,
-6.42000e-01,-1.24800e-01,7.41600e-01,
-6.39200e-01,-1.21600e-01,7.34800e-01,
-6.42400e-01,-1.24800e-01,7.41200e-01,
-6.39200e-01,-1.24800e-01,7.41200e-01,
-6.42400e-01,-1.21600e-01,7.34800e-01,
-6.42400e-01,-1.21600e-01,7.34800e-01,
-6.38400e-01,-1.24400e-01,7.41200e-01,
-6.42400e-01,-1.24800e-01,7.41200e-01,
-6.38400e-01,-1.21600e-01,7.34800e-01,
-6.38400e-01,-1.24800e-01,7.34800e-01,
-6.42000e-01,-1.21600e-01,7.41200e-01,
-6.42000e-01,-1.24800e-01,7.41600e-01,
-6.38400e-01,-1.21600e-01,7.34800e-01,
-6.42000e-01,-1.24800e-01,7.41200e-01,
-6.38400e-01,-1.21600e-01,7.34800e-01,
-6.38400e-01,-1.24800e-01,7.34800e-01,
-6.42400e-01,-1.21600e-01,7.41600e-01,
-6.38400e-01,-1.24400e-01,7.34800e-01,
-6.42400e-01,-1.21600e-01,7.41600e-01,
-6.38400e-01,-1.21600e-01,7.34400e-01,
-6.42400e-01,-1.24800e-01,7.41600e-01,
-6.42400e-01,-1.24800e-01,7.41200e-01,
-6.38800e-01,-1.21600e-01,7.34800e-01,
-6.42400e-01,-1.24800e-01,7.41600e-01,
-6.39600e-01,-1.21600e-01,7.34800e-01,
-6.42400e-01,-1.24800e-01,7.34800e-01,
-6.38400e-01,-1.21600e-01,7.41600e-01,
-6.38400e-01,-1.21600e-01,7.41200e-01,
-6.42400e-01,-1.24400e-01,7.34800e-01,
-6.38400e-01,-1.20800e-01,7.34400e-01,
-6.41600e-01,-1.24800e-01,7.41200e-01,
-6.39200e-01,-1.24000e-01,7.41200e-01,
-6.42400e-01,-1.21600e-01,7.34800e-01,
-6.38400e-01,-1.21600e-01,7.41200e-01,
-6.42000e-01,-1.24800e-01,7.34800e-01,
-6.42400e-01,-1.21600e-01,7.41200e-01,
-6.39200e-01,-1.24000e-01,7.34800e-01,
-6.39200e-01,-1.21600e-01,7.34800e-01,
-6.42400e-01,-1.24800e-01,7.41600e-01,
-6.39200e-01,-1.21600e-01,7.34800e-01,
-6.42400e-01,-1.24800e-01,7.41600e-01,
-6.39200e-01,-1.21600e-01,7.41600e-01,
-6.42400e-01,-1.24400e-01,7.35600e-01,
-6.42400e-01,-1.21600e-01,7.35200e-01,
-6.38400e-01,-1.24800e-01,7.41600e-01,
-6.42400e-01,-1.24800e-01,7.41600e-01,
-6.39200e-01,-1.20800e-01,7.35600e-01,
-6.39200e-01,-1.24800e-01,7.41600e-01,
-6.42400e-01,-1.21600e-01,7.35600e-01,
-6.39200e-01,-1.21600e-01,7.41600e-01,
-6.42400e-01,-1.24800e-01,7.35200e-01,
-6.39200e-01,-1.24800e-01,7.35600e-01,
-6.42400e-01,-1.21600e-01,7.41600e-01,
-6.42400e-01,-1.21600e-01,7.35600e-01,
-6.39200e-01,-1.24800e-01,7.42400e-01,
-6.42400e-01,-1.21600e-01,7.42400e-01,
-6.39200e-01,-1.24800e-01,7.34800e-01,
-6.39200e-01,-1.21600e-01,7.35600e-01,
-6.42400e-01,-1.24800e-01,7.41600e-01,
-6.39200e-01,-1.24800e-01,7.35600e-01,
-6.42400e-01,-1.21600e-01,7.42400e-01,
-6.42800e-01,-1.21600e-01,7.41600e-01,
-6.39200e-01,-1.24800e-01,7.35600e-01,
-6.39200e-01,-1.24800e-01,7.42400e-01,
-6.43200e-01,-1.21600e-01,7.35600e-01,
-6.42800e-01,-1.24800e-01,7.42400e-01,
-6.39200e-01,-1.21600e-01,7.35600e-01,
-6.39200e-01,-1.24800e-01,7.42400e-01,
-6.42800e-01,-1.21600e-01,7.35600e-01,
-6.43200e-01,-1.21600e-01,7.42400e-01,
-6.39200e-01,-1.24800e-01,7.35600e-01,
-6.43200e-01,-1.24800e-01,7.36000e-01,
-6.39600e-01,-1.21600e-01,7.42400e-01,
-6.39200e-01,-1.24800e-01,7.42000e-01,
-6.42800e-01,-1.21600e-01,7.35600e-01,
-6.42400e-01,-1.24800e-01,7.34800e-01,
-6.39200e-01,-1.21600e-01,7.42000e-01,
-6.39200e-01,-1.21600e-01,7.35600e-01,
-6.42800e-01,-1.24800e-01,7.42400e-01,
-6.39200e-01,-1.24800e-01,7.41600e-01,
-6.42800e-01,-1.21600e-01,7.35600e-01,
-6.42400e-01,-1.21600e-01,7.35600e-01,
-6.39200e-01,-1.24800e-01,7.42400e-01,
-6.42400e-01,-1.21600e-01,7.35600e-01,
-6.39200e-01,-1.24800e-01,7.42400e-01,
-6.39200e-01,-1.24800e-01,7.35600e-01,
-6.42400e-01,-1.21600e-01,7.41600e-01,
-6.42400e-01,-1.24800e-01,7.41600e-01,
-6.39200e-01,-1.21600e-01,7.35200e-01,
-6.39200e-01,-1.24800e-01,7.35200e-01,
-6.42400e-01,-1.21600e-01,7.41600e-01,
-6.42400e-01,-1.24800e-01,7.41600e-01,
-6.39200e-01,-1.21600e-01,7.35600e-01,
-6.42400e-01,-1.24800e-01,7.34800e-01,
-6.39200e-01,-1.21600e-01,7.41600e-01,
-6.42400e-01,-1.24800e-01,7.41600e-01,
-6.38800e-01,-1.21600e-01,7.34800e-01,
-6.39200e-01,-1.24800e-01,7.41200e-01,
-6.42400e-01,-1.21600e-01,7.34800e-01,
-6.42400e-01,-1.21600e-01,7.34800e-01,
-6.39200e-01,-1.24800e-01,7.41600e-01,
-6.42400e-01,-1.21600e-01,7.41600e-01,
-6.39200e-01,-1.24800e-01,7.34800e-01,
-6.39200e-01,-1.24800e-01,7.41600e-01,
-6.42400e-01,-1.21600e-01,7.35600e-01,
-6.38800e-01,-1.21600e-01,7.34800e-01,
-6.42400e-01,-1.24800e-01,7.41600e-01,
-6.42400e-01,-1.21600e-01,7.41600e-01,
-6.39200e-01,-1.24400e-01,7.35600e-01,
-6.42400e-01,-1.21600e-01,7.41600e-01,
-6.39200e-01,-1.24800e-01,7.34800e-01,
-6.42400e-01,-1.21600e-01,7.41600e-01,
-6.38800e-01,-1.24800e-01,7.34800e-01,
-6.42400e-01,-1.24800e-01,7.34800e-01,
-6.38800e-01,-1.21600e-01,7.41200e-01,
-6.39200e-01,-1.21600e-01,7.34800e-01,
-6.42400e-01,-1.24800e-01,7.41600e-01,
-6.39200e-01,-1.24800e-01,7.34800e-01,
-6.42400e-01,-1.21600e-01,7.41600e-01,
-6.39200e-01,-1.24800e-01,7.41600e-01,
-6.42400e-01,-1.21600e-01,7.34800e-01,
-6.41600e-01,-1.21600e-01,7.34800e-01,
-6.38400e-01,-1.24800e-01,7.41200e-01,
-6.38800e-01,-1.24400e-01,7.41200e-01,
-6.42000e-01,-1.21600e-01,7.34800e-01,
-6.42000e-01,-1.21600e-01,7.41200e-01,
-6.38400e-01,-1.24800e-01,7.34800e-01,
-6.42000e-01,-1.21600e-01,7.34800e-01,
-6.38400e-01,-1.24800e-01,7.41200e-01,
-6.38400e-01,-1.21600e-01,7.34800e-01,
-6.42000e-01,-1.24800e-01,7.41200e-01,
-6.42400e-01,-1.24800e-01,7.35200e-01,
-6.39200e-01,-1.21600e-01,7.41600e-01,
-6.41600e-01,-1.24400e-01,7.41200e-01,
-6.38400e-01,-1.21600e-01,7.34400e-01,
-6.38400e-01,-1.21600e-01,7.34400e-01,
-6.41600e-01,-1.24800e-01,7.41200e-01,
-6.38400e-01,-1.21600e-01,7.41200e-01,
-6.42000e-01,-1.24000e-01,7.34400e-01,
-6.42000e-01,-1.22000e-01,7.41200e-01,
-6.38400e-01,-1.24800e-01,7.34800e-01,
-6.38400e-01,-1.21600e-01,7.34800e-01,
-6.42000e-01,-1.24800e-01,7.41200e-01,
-6.38400e-01,-1.24800e-01,7.34800e-01,
-6.42400e-01,-1.21600e-01,7.41200e-01,
-6.38400e-01,-1.22000e-01,7.41200e-01,
-6.42400e-01,-1.24800e-01,7.34800e-01,
-6.42000e-01,-1.24400e-01,7.41200e-01,
-6.38000e-01,-1.21600e-01,7.34800e-01,
-6.38400e-01,-1.21600e-01,7.34800e-01,
-6.42000e-01,-1.24800e-01,7.41200e-01,
-6.38800e-01,-1.21600e-01,7.41200e-01,
-6.42400e-01,-1.24800e-01,7.34800e-01,
-6.38400e-01,-1.21600e-01,7.34400e-01,
-6.42000e-01,-1.24000e-01,7.41200e-01,
-6.41600e-01,-1.21600e-01,7.41600e-01,
-6.38400e-01,-1.24800e-01,7.34800e-01,
-6.38800e-01,-1.24800e-01,7.34800e-01,
-6.41600e-01,-1.21600e-01,7.41200e-01,
-6.42400e-01,-1.24800e-01,7.41200e-01,
-6.38400e-01,-1.21600e-01,7.34800e-01,
-6.41600e-01,-1.24800e-01,7.34800e-01,
-6.38400e-01,-1.21600e-01,7.41200e-01,
-6.42000e-01,-1.21600e-01,7.41200e-01,
-6.38400e-01,-1.24800e-01,7.34800e-01,
-6.42000e-01,-1.24800e-01,7.34800e-01,
-6.38400e-01,-1.21600e-01,7.41600e-01,
-6.42400e-01,-1.24800e-01,7.34800e-01,
-6.38400e-01,-1.21600e-01,7.41600e-01,
-6.42000e-01,-1.24800e-01,7.41200e-01,
-6.38400e-01,-1.21600e-01,7.34800e-01,
-6.38400e-01,-1.24800e-01,7.41200e-01,
-6.42000e-01,-1.21600e-01,7.34800e-01,
-6.42400e-01,-1.24800e-01,7.41200e-01,
-6.38400e-01,-1.21600e-01,7.34800e-01,
-6.39200e-01,-1.24800e-01,7.34800e-01,
-6.42400e-01,-1.21600e-01,7.41600e-01,
-6.38400e-01,-1.24800e-01,7.41200e-01,
-6.42400e-01,-1.21600e-01,7.34800e-01,
-6.42000e-01,-1.24800e-01,7.41200e-01,
-6.38400e-01,-1.21600e-01,7.34800e-01,
-6.41600e-01,-1.22000e-01,7.34800e-01,
-6.38400e-01,-1.24800e-01,7.41200e-01,
-6.38400e-01,-1.24800e-01,7.41600e-01,
-6.42400e-01,-1.21600e-01,7.34800e-01,
-6.38400e-01,-1.21600e-01,7.34800e-01,
-6.42000e-01,-1.25200e-01,7.41200e-01,
-6.39200e-01,-1.21600e-01,7.41200e-01,
-6.42000e-01,-1.24800e-01,7.34800e-01,
-6.42400e-01,-1.24800e-01,7.41200e-01,
-6.38400e-01,-1.21600e-01,7.34800e-01,
-6.38800e-01,-1.24800e-01,7.41200e-01,
-6.42000e-01,-1.21600e-01,7.34800e-01,
-6.38800e-01,-1.24800e-01,7.34800e-01,
-6.42400e-01,-1.21600e-01,7.41200e-01,
-6.42000e-01,-1.21600e-01,7.34800e-01,
-6.38800e-01,-1.24800e-01,7.41200e-01,
-6.38400e-01,-1.21600e-01,7.34800e-01,
-6.42000e-01,-1.24800e-01,7.41200e-01,
-6.42400e-01,-1.24800e-01,7.34800e-01,
-6.38400e-01,-1.21600e-01,7.41200e-01,
-6.42000e-01,-1.24800e-01,7.41200e-01,
-6.38800e-01,-1.21600e-01,7.34800e-01,
-6.42400e-01,-1.22000e-01,7.41200e-01,
-6.38800e-01,-1.24800e-01,7.34800e-01,
-6.39200e-01,-1.21600e-01,7.41200e-01,
-6.42400e-01,-1.24800e-01,7.34800e-01,
-6.42400e-01,-1.24800e-01,7.41200e-01,
-6.38800e-01,-1.21600e-01,7.34800e-01,
-6.39200e-01,-1.21600e-01,7.35200e-01,
-6.42400e-01,-1.24800e-01,7.41600e-01,
-6.42400e-01,-1.24800e-01,7.41600e-01,
-6.38400e-01,-1.21600e-01,7.34800e-01,
-6.41600e-01,-1.24800e-01,7.41200e-01,
-6.38400e-01,-1.21600e-01,7.34800e-01,
-6.41600e-01,-1.21600e-01,7.41200e-01,
-6.38400e-01,-1.24800e-01,7.34800e-01,
-6.38400e-01,-1.24800e-01,7.34800e-01,
-6.42000e-01,-1.21600e-01,7.41200e-01,
-6.42000e-01,-1.24800e-01,7.34800e-01,
-6.38800e-01,-1.21600e-01,7.41200e-01,
-6.38400e-01,-1.21600e-01,7.34800e-01,
-6.42000e-01,-1.24800e-01,7.41200e-01,
-6.38800e-01,-1.21600e-01,7.41200e-01,
-6.42000e-01,-1.24800e-01,7.34800e-01,
-6.38400e-01,-1.24800e-01,7.34800e-01,
-6.42000e-01,-1.21600e-01,7.41200e-01,
-6.38400e-01,-1.21600e-01,7.34800e-01,
-6.42400e-01,-1.24800e-01,7.41200e-01,
-6.38400e-01,-1.24800e-01,7.34800e-01,
-6.42400e-01,-1.21600e-01,7.41600e-01,
-6.41600e-01,-1.24800e-01,7.41200e-01,
-6.38800e-01,-1.21600e-01,7.34800e-01,
-6.42000e-01,-1.24800e-01,7.34800e-01,
-6.38400e-01,-1.21600e-01,7.41200e-01,
-6.42000e-01,-1.21600e-01,7.34800e-01,
-6.38400e-01,-1.24800e-01,7.41200e-01,
-6.41600e-01,-1.21600e-01,7.41200e-01,
-6.38400e-01,-1.24800e-01,7.34800e-01,
-6.38400e-01,-1.21600e-01,7.41200e-01,
-6.42000e-01,-1.24800e-01,7.34800e-01,
-6.42400e-01,-1.21600e-01,7.34800e-01,
-6.38400e-01,-1.24800e-01,7.41200e-01,
-6.42000e-01,-1.24800e-01,7.41200e-01,
-6.38400e-01,-1.21600e-01,7.34800e-01,
-6.38400e-01,-1.21600e-01,7.41200e-01,
-6.42000e-01,-1.24800e-01,7.34800e-01,
-6.42000e-01,-1.21600e-01,7.41200e-01,
-6.38400e-01,-1.24800e-01,7.34800e-01,
-6.38400e-01,-1.24800e-01,7.41200e-01,
-6.42000e-01,-1.21600e-01,7.34400e-01,
-6.41600e-01,-1.24800e-01,7.34400e-01,
-6.38400e-01,-1.21600e-01,7.41200e-01,
-6.41600e-01,-1.21600e-01,7.41200e-01,
-6.38400e-01,-1.24400e-01,7.34400e-01,
-6.38400e-01,-1.24800e-01,7.41200e-01,
-6.42000e-01,-1.21600e-01,7.34400e-01,
-6.41600e-01,-1.21600e-01,7.40400e-01,
-6.38000e-01,-1.24800e-01,7.34400e-01,
-6.38400e-01,-1.21600e-01,7.41200e-01,
-6.42000e-01,-1.24800e-01,7.34400e-01,
-6.42000e-01,-1.21600e-01,7.40400e-01,
-6.38000e-01,-1.24400e-01,7.34400e-01,
-6.42000e-01,-1.21600e-01,7.34800e-01,
-6.38400e-01,-1.24800e-01,7.41200e-01,
-6.41600e-01,-1.21600e-01,7.41200e-01,
-6.38400e-01,-1.24800e-01,7.34800e-01,
-6.41600e-01,-1.21600e-01,7.41200e-01,
-6.38000e-01,-1.24800e-01,7.34400e-01,
-6.38000e-01,-1.21600e-01,7.34400e-01,
-6.41600e-01,-1.24800e-01,7.41200e-01,
-6.38000e-01,-1.24800e-01,7.41200e-01,
-6.41600e-01,-1.21600e-01,7.34400e-01,
-6.38400e-01,-1.21600e-01,7.34400e-01,
-6.42000e-01,-1.24800e-01,7.41200e-01,
-6.42000e-01,-1.21600e-01,7.34400e-01,
-6.38000e-01,-1.24800e-01,7.41200e-01,
-6.41600e-01,-1.22400e-01,7.34400e-01,
-6.38400e-01,-1.21600e-01,7.41200e-01,
-6.38400e-01,-1.21600e-01,7.34800e-01,
-6.42000e-01,-1.24800e-01,7.41200e-01,
-6.41600e-01,-1.21600e-01,7.34800e-01,
-6.38400e-01,-1.24800e-01,7.41200e-01,
-6.38400e-01,-1.21600e-01,7.41200e-01,
-6.42400e-01,-1.24800e-01,7.34400e-01,
-6.41600e-01,-1.21600e-01,7.34800e-01,
-6.38400e-01,-1.24800e-01,7.41200e-01,
-6.41600e-01,-1.21600e-01,7.41200e-01,
-6.38400e-01,-1.24800e-01,7.34400e-01,
-6.38400e-01,-1.21600e-01,7.34400e-01,
-6.41600e-01,-1.24800e-01,7.41200e-01,
-6.38000e-01,-1.21600e-01,7.40400e-01,
-6.41600e-01,-1.24000e-01,7.34400e-01,
-6.38000e-01,-1.21600e-01,7.34400e-01,
-6.41600e-01,-1.24400e-01,7.40400e-01,
-6.38400e-01,-1.21600e-01,7.40400e-01,
-6.41600e-01,-1.24800e-01,7.34400e-01,
-6.38000e-01,-1.21600e-01,7.34400e-01,
-6.41600e-01,-1.24800e-01,7.40400e-01,
-6.38000e-01,-1.24400e-01,7.34400e-01,
-6.42000e-01,-1.21600e-01,7.41200e-01,
-6.38000e-01,-1.21600e-01,7.40400e-01,
-6.41600e-01,-1.24800e-01,7.34400e-01,
-6.41600e-01,-1.24400e-01,7.40400e-01,
-6.38000e-01,-1.20800e-01,7.34400e-01,
-6.41200e-01,-1.21600e-01,7.34400e-01,
-6.38000e-01,-1.24800e-01,7.40400e-01,
-6.38000e-01,-1.21600e-01,7.40400e-01,
-6.41200e-01,-1.24400e-01,7.33600e-01,
-6.38000e-01,-1.21600e-01,7.40400e-01,
-6.41200e-01,-1.24000e-01,7.34400e-01,
-6.41200e-01,-1.24000e-01,7.34400e-01,
-6.38000e-01,-1.20800e-01,7.40400e-01,
-6.41200e-01,-1.24000e-01,7.33600e-01,
-6.38000e-01,-1.21600e-01,7.40400e-01,
-6.41200e-01,-1.24000e-01,7.34400e-01,
-6.38000e-01,-1.20800e-01,7.40400e-01,
-6.41200e-01,-1.24000e-01,7.34400e-01,
-6.38000e-01,-1.20800e-01,7.40400e-01,
-6.38000e-01,-1.21600e-01,7.34400e-01,
-6.41200e-01,-1.24000e-01,7.40400e-01,
-6.41200e-01,-1.24000e-01,7.33600e-01,
-6.38000e-01,-1.20800e-01,7.40400e-01,
-6.41200e-01,-1.24000e-01,7.34000e-01,
-6.38000e-01,-1.20800e-01,7.40000e-01,
-6.38000e-01,-1.24000e-01,7.40000e-01,
-6.41200e-01,-1.20800e-01,7.33600e-01,
-6.41200e-01,-1.24000e-01,7.40000e-01,
-6.38000e-01,-1.21200e-01,7.33600e-01,
-6.41200e-01,-1.24000e-01,7.33600e-01,
-6.37600e-01,-1.21200e-01,7.40000e-01,
-6.38000e-01,-1.24000e-01,7.33600e-01,
-6.41200e-01,-1.20800e-01,7.40000e-01,
-6.38000e-01,-1.24000e-01,7.40000e-01,
-6.41200e-01,-1.21200e-01,7.33600e-01,
-6.37200e-01,-1.24000e-01,7.34000e-01,
-6.41200e-01,-1.20800e-01,7.40400e-01,
-6.41200e-01,-1.24000e-01,7.40000e-01,
-6.38000e-01,-1.20800e-01,7.33600e-01,
-6.38000e-01,-1.24800e-01,7.40000e-01,
-6.41200e-01,-1.20800e-01,7.33600e-01,
-6.41200e-01,-1.24000e-01,7.40000e-01,
-6.37200e-01,-1.20800e-01,7.33600e-01,
-6.37600e-01,-1.24000e-01,7.33600e-01,
-6.41200e-01,-1.20800e-01,7.40400e-01,
-6.37200e-01,-1.20800e-01,7.40400e-01,
-6.41200e-01,-1.24000e-01,7.33600e-01,
-6.41200e-01,-1.20800e-01,7.33600e-01,
-6.37600e-01,-1.24000e-01,7.40400e-01,
-6.41200e-01,-1.24000e-01,7.40400e-01,
-6.38000e-01,-1.20800e-01,7.34000e-01,
-6.41200e-01,-1.20800e-01,7.40400e-01,
-6.38000e-01,-1.24000e-01,7.34000e-01,
-6.38000e-01,-1.24000e-01,7.40000e-01,
-6.41200e-01,-1.20800e-01,7.33600e-01,
-6.38000e-01,-1.24000e-01,7.34000e-01,
-6.41200e-01,-1.20800e-01,7.40400e-01,
-6.38000e-01,-1.24000e-01,7.40400e-01,
-6.41200e-01,-1.21200e-01,7.34000e-01,
-6.41200e-01,-1.24000e-01,7.40400e-01,
-6.38000e-01,-1.20800e-01,7.34400e-01,
-6.38000e-01,-1.21600e-01,7.34400e-01,
-6.41200e-01,-1.24000e-01,7.40400e-01,
-6.41200e-01,-1.24000e-01,7.34400e-01,
-6.38000e-01,-1.20800e-01,7.40400e-01,
-6.38000e-01,-1.24000e-01,7.40400e-01,
-6.41200e-01,-1.20800e-01,7.33600e-01,
-6.38000e-01,-1.24000e-01,7.34400e-01,
-6.41600e-01,-1.20800e-01,7.40400e-01,
-6.38000e-01,-1.24000e-01,7.40400e-01,
-6.41600e-01,-1.21200e-01,7.34400e-01,
-6.38400e-01,-1.20800e-01,7.41200e-01,
-6.41600e-01,-1.24800e-01,7.34400e-01,
-6.42000e-01,-1.21600e-01,7.34400e-01,
